{
  "Owner": {
    "ID": "24c8d02f-d653-4589-abe9-b93d4781a809",
    "Name": "Johnathan"
  },
  "OwnedFactories": [
    {
      "ShapeProduct": {
        "Style": 0,
        "Rarity": 1
      },
      "ProductionRate": "00:00:01",
      "ProductsCreated": 0,
      "ProductsTaken": 0
    }
  ]
}